{
    "value": {
        "value": {
            
        },
        "watched": [
            "ref:c984eca8:/home/craig/example-3/foo/resources",
            "ref:ed0f5f0e:/home/craig/example-3/foo/src"
        ]
    },
    "valueHash": -147824675,
    "inputsHash": -1377298859
}