{
    "value": {
        "analysisFile": "/home/craig/example-3/out/foo/compile/dest/zinc",
        "classes": "ref:a1b5f299:/home/craig/example-3/out/foo/compile/dest/classes"
    },
    "valueHash": -1092067599,
    "inputsHash": -1970342046
}