{
    "value": [
        "qref:b7cccdf8:/home/craig/example-3/.coursier/https/repo1.maven.org/maven2/org/scala-lang/scala-library/2.13.2/scala-library-2.13.2.jar"
    ],
    "valueHash": -1211314696,
    "inputsHash": 1705737893
}